glx@extension string sanity,Fail
glx@glx-make-glxdrawable-current,Fail
spec@!opengl 1.1@windowoverlap,Fail
spec@arb_shader_clock@execution@clock,Fail
spec@egl_chromium_sync_control@conformance,Fail
spec@egl_chromium_sync_control@conformance@eglGetSyncValuesCHROMIUM_msc_and_sbc_test,Fail
glx@glx-make-current,Crash
glx@glx-multi-window-single-context,Fail
glx@glx-visuals-depth -pixmap,Fail
glx@glx-visuals-stencil -pixmap,Fail
glx@glx_arb_create_context_es2_profile@invalid opengl es version,Fail
glx@glx_arb_create_context_no_error@no error,Fail
glx@glx_arb_create_context_robustness@invalid reset notification strategy,Fail
glx@glx_ext_import_context@free context,Fail
glx@glx_ext_import_context@get context id,Fail
glx@glx_ext_import_context@get current display,Fail
glx@glx_ext_import_context@import context- multi process,Fail
glx@glx_ext_import_context@import context- single process,Fail
glx@glx_ext_import_context@imported context has same context id,Fail
glx@glx_ext_import_context@make current- multi process,Fail
glx@glx_ext_import_context@make current- single process,Fail
glx@glx_ext_import_context@query context info,Fail
glx@glx_ext_no_config_context@no fbconfig,Fail
spec@!opengl 1.0@gl-1.0-swapbuffers-behavior,Fail
spec@!opengl 1.0@gl-1.0-user-clip-all-planes,Fail
spec@!opengl 1.0@rasterpos,Fail
spec@!opengl 1.0@rasterpos@glsl_vs_gs_linked,Fail
spec@!opengl 1.0@rasterpos@glsl_vs_tes_linked,Fail
spec@!opengl 1.1@read-front,Fail
spec@!opengl 1.1@read-front clear-front-first,Fail
spec@!opengl 1.1@read-front clear-front-first samples=2,Fail
spec@!opengl 1.1@read-front clear-front-first samples=4,Fail
spec@!opengl 1.1@read-front clear-front-first samples=6,Fail
spec@!opengl 1.1@read-front clear-front-first samples=8,Fail
spec@!opengl 1.1@read-front samples=2,Fail
spec@!opengl 1.1@read-front samples=4,Fail
spec@!opengl 1.1@read-front samples=6,Fail
spec@!opengl 1.1@read-front samples=8,Fail
spec@!opengl 3.2@gl-3.2-adj-prims cull-back pv-first,Fail
spec@!opengl 3.2@gl-3.2-adj-prims cull-back pv-last,Fail
spec@!opengl 3.2@gl-3.2-adj-prims cull-front pv-first,Fail
spec@!opengl 3.2@gl-3.2-adj-prims cull-front pv-last,Fail
spec@!opengl 3.2@gl-3.2-adj-prims line cull-back pv-first,Fail
spec@!opengl 3.2@gl-3.2-adj-prims line cull-back pv-last,Fail
spec@!opengl 3.2@gl-3.2-adj-prims line cull-front pv-first,Fail
spec@!opengl 3.2@gl-3.2-adj-prims line cull-front pv-last,Fail
spec@!opengl 3.2@gl-3.2-adj-prims pv-first,Fail
spec@!opengl 3.2@gl-3.2-adj-prims pv-last,Fail
spec@arb_bindless_texture@compiler@images@arith-bound-image.frag,Crash
spec@arb_bindless_texture@compiler@samplers@arith-bound-sampler-texture2d.frag,Crash
spec@arb_gpu_shader_fp64@execution@conversion@frag-conversion-explicit-dmat2-mat2,Fail
spec@arb_gpu_shader_fp64@execution@conversion@frag-conversion-explicit-dmat2x3-mat2x3,Fail
spec@arb_gpu_shader_fp64@execution@conversion@frag-conversion-explicit-dmat2x4-mat2x4,Fail
spec@arb_gpu_shader_fp64@execution@conversion@frag-conversion-explicit-dmat3-mat3,Fail
spec@arb_gpu_shader_fp64@execution@conversion@frag-conversion-explicit-dmat3x2-mat3x2,Fail
spec@arb_gpu_shader_fp64@execution@conversion@frag-conversion-explicit-dmat3x4-mat3x4,Fail
spec@arb_gpu_shader_fp64@execution@conversion@frag-conversion-explicit-dmat4-mat4,Fail
spec@arb_gpu_shader_fp64@execution@conversion@frag-conversion-explicit-dmat4x2-mat4x2,Fail
spec@arb_gpu_shader_fp64@execution@conversion@frag-conversion-explicit-dmat4x3-mat4x3,Fail
spec@arb_gpu_shader_fp64@execution@conversion@frag-conversion-explicit-double-float,Fail
spec@arb_gpu_shader_fp64@execution@conversion@frag-conversion-explicit-dvec2-vec2,Fail
spec@arb_gpu_shader_fp64@execution@conversion@frag-conversion-explicit-dvec3-vec3,Fail
spec@arb_gpu_shader_fp64@execution@conversion@frag-conversion-explicit-dvec4-vec4,Fail
spec@arb_gpu_shader_fp64@execution@conversion@geom-conversion-explicit-dmat2-mat2,Fail
spec@arb_gpu_shader_fp64@execution@conversion@geom-conversion-explicit-dmat2x3-mat2x3,Fail
spec@arb_gpu_shader_fp64@execution@conversion@geom-conversion-explicit-dmat2x4-mat2x4,Fail
spec@arb_gpu_shader_fp64@execution@conversion@geom-conversion-explicit-dmat3-mat3,Fail
spec@arb_gpu_shader_fp64@execution@conversion@geom-conversion-explicit-dmat3x2-mat3x2,Fail
spec@arb_gpu_shader_fp64@execution@conversion@geom-conversion-explicit-dmat3x4-mat3x4,Fail
spec@arb_gpu_shader_fp64@execution@conversion@geom-conversion-explicit-dmat4-mat4,Fail
spec@arb_gpu_shader_fp64@execution@conversion@geom-conversion-explicit-dmat4x2-mat4x2,Fail
spec@arb_gpu_shader_fp64@execution@conversion@geom-conversion-explicit-dmat4x3-mat4x3,Fail
spec@arb_gpu_shader_fp64@execution@conversion@geom-conversion-explicit-double-float,Fail
spec@arb_gpu_shader_fp64@execution@conversion@geom-conversion-explicit-dvec2-vec2,Fail
spec@arb_gpu_shader_fp64@execution@conversion@geom-conversion-explicit-dvec3-vec3,Fail
spec@arb_gpu_shader_fp64@execution@conversion@geom-conversion-explicit-dvec4-vec4,Fail
spec@arb_gpu_shader_fp64@execution@conversion@vert-conversion-explicit-dmat2-mat2,Fail
spec@arb_gpu_shader_fp64@execution@conversion@vert-conversion-explicit-dmat2x3-mat2x3,Fail
spec@arb_gpu_shader_fp64@execution@conversion@vert-conversion-explicit-dmat2x4-mat2x4,Fail
spec@arb_gpu_shader_fp64@execution@conversion@vert-conversion-explicit-dmat3-mat3,Fail
spec@arb_gpu_shader_fp64@execution@conversion@vert-conversion-explicit-dmat3x2-mat3x2,Fail
spec@arb_gpu_shader_fp64@execution@conversion@vert-conversion-explicit-dmat3x4-mat3x4,Fail
spec@arb_gpu_shader_fp64@execution@conversion@vert-conversion-explicit-dmat4-mat4,Fail
spec@arb_gpu_shader_fp64@execution@conversion@vert-conversion-explicit-dmat4x2-mat4x2,Fail
spec@arb_gpu_shader_fp64@execution@conversion@vert-conversion-explicit-dmat4x3-mat4x3,Fail
spec@arb_gpu_shader_fp64@execution@conversion@vert-conversion-explicit-double-float,Fail
spec@arb_gpu_shader_fp64@execution@conversion@vert-conversion-explicit-dvec2-vec2,Fail
spec@arb_gpu_shader_fp64@execution@conversion@vert-conversion-explicit-dvec3-vec3,Fail
spec@arb_gpu_shader_fp64@execution@conversion@vert-conversion-explicit-dvec4-vec4,Fail
spec@arb_program_interface_query@arb_program_interface_query-getprogramresourceindex,Fail
spec@arb_program_interface_query@arb_program_interface_query-getprogramresourceindex@'vs_input2[1][0]' on GL_PROGRAM_INPUT,Fail
spec@arb_shader_clock@execution@clock2x32,Fail
spec@arb_shader_texture_lod@execution@arb_shader_texture_lod-texgradcube,Fail
spec@arb_shading_language_packing@execution@built-in-functions@fs-packhalf2x16,Fail
spec@arb_shading_language_packing@execution@built-in-functions@vs-packhalf2x16,Fail
spec@arb_sparse_buffer@buffer-data,Fail
spec@arb_sparse_buffer@commit,Fail
spec@egl_ext_protected_content@conformance,Fail
spec@ext_framebuffer_blit@fbo-blit-check-limits,Fail
spec@ext_image_dma_buf_import@ext_image_dma_buf_import-sample_uyvy,Fail
spec@ext_image_dma_buf_import@ext_image_dma_buf_import-sample_y210,Fail
spec@ext_image_dma_buf_import@ext_image_dma_buf_import-sample_y212,Fail
spec@ext_image_dma_buf_import@ext_image_dma_buf_import-sample_y216,Fail
spec@ext_image_dma_buf_import@ext_image_dma_buf_import-sample_yuyv,Fail
spec@ext_transform_feedback@order arrays lines,Fail
spec@ext_transform_feedback@order arrays points,Fail
spec@ext_transform_feedback@order arrays triangles,Fail
spec@ext_transform_feedback@order elements lines,Fail
spec@ext_transform_feedback@order elements points,Fail
spec@ext_transform_feedback@order elements triangles,Fail
spec@glsl-1.20@compiler@invalid-vec4-array-to-vec3-array-conversion.vert,Fail
spec@glsl-1.50@execution@geometry@primitive-types gl_triangle_strip_adjacency,Fail
spec@glsl-1.50@execution@geometry@tri-strip-ordering-with-prim-restart gl_triangle_strip_adjacency ffs,Fail
spec@glsl-1.50@execution@geometry@tri-strip-ordering-with-prim-restart gl_triangle_strip_adjacency other,Fail
spec@glsl-4.00@execution@conversion@frag-conversion-explicit-dmat2-mat2,Fail
spec@glsl-4.00@execution@conversion@frag-conversion-explicit-dmat2x3-mat2x3,Fail
spec@glsl-4.00@execution@conversion@frag-conversion-explicit-dmat2x4-mat2x4,Fail
spec@glsl-4.00@execution@conversion@frag-conversion-explicit-dmat3-mat3,Fail
spec@glsl-4.00@execution@conversion@frag-conversion-explicit-dmat3x2-mat3x2,Fail
spec@glsl-4.00@execution@conversion@frag-conversion-explicit-dmat3x4-mat3x4,Fail
spec@glsl-4.00@execution@conversion@frag-conversion-explicit-dmat4-mat4,Fail
spec@glsl-4.00@execution@conversion@frag-conversion-explicit-dmat4x2-mat4x2,Fail
spec@glsl-4.00@execution@conversion@frag-conversion-explicit-dmat4x3-mat4x3,Fail
spec@glsl-4.00@execution@conversion@frag-conversion-explicit-double-float,Fail
spec@glsl-4.00@execution@conversion@frag-conversion-explicit-dvec2-vec2,Fail
spec@glsl-4.00@execution@conversion@frag-conversion-explicit-dvec3-vec3,Fail
spec@glsl-4.00@execution@conversion@frag-conversion-explicit-dvec4-vec4,Fail
spec@glsl-4.00@execution@conversion@geom-conversion-explicit-dmat2-mat2,Fail
spec@glsl-4.00@execution@conversion@geom-conversion-explicit-dmat2x3-mat2x3,Fail
spec@glsl-4.00@execution@conversion@geom-conversion-explicit-dmat2x4-mat2x4,Fail
spec@glsl-4.00@execution@conversion@geom-conversion-explicit-dmat3-mat3,Fail
spec@glsl-4.00@execution@conversion@geom-conversion-explicit-dmat3x2-mat3x2,Fail
spec@glsl-4.00@execution@conversion@geom-conversion-explicit-dmat3x4-mat3x4,Fail
spec@glsl-4.00@execution@conversion@geom-conversion-explicit-dmat4-mat4,Fail
spec@glsl-4.00@execution@conversion@geom-conversion-explicit-dmat4x2-mat4x2,Fail
spec@glsl-4.00@execution@conversion@geom-conversion-explicit-dmat4x3-mat4x3,Fail
spec@glsl-4.00@execution@conversion@geom-conversion-explicit-double-float,Fail
spec@glsl-4.00@execution@conversion@geom-conversion-explicit-dvec2-vec2,Fail
spec@glsl-4.00@execution@conversion@geom-conversion-explicit-dvec3-vec3,Fail
spec@glsl-4.00@execution@conversion@geom-conversion-explicit-dvec4-vec4,Fail
spec@glsl-4.00@execution@conversion@vert-conversion-explicit-dmat2-mat2,Fail
spec@glsl-4.00@execution@conversion@vert-conversion-explicit-dmat2x3-mat2x3,Fail
spec@glsl-4.00@execution@conversion@vert-conversion-explicit-dmat2x4-mat2x4,Fail
spec@glsl-4.00@execution@conversion@vert-conversion-explicit-dmat3-mat3,Fail
spec@glsl-4.00@execution@conversion@vert-conversion-explicit-dmat3x2-mat3x2,Fail
spec@glsl-4.00@execution@conversion@vert-conversion-explicit-dmat3x4-mat3x4,Fail
spec@glsl-4.00@execution@conversion@vert-conversion-explicit-dmat4-mat4,Fail
spec@glsl-4.00@execution@conversion@vert-conversion-explicit-dmat4x2-mat4x2,Fail
spec@glsl-4.00@execution@conversion@vert-conversion-explicit-dmat4x3-mat4x3,Fail
spec@glsl-4.00@execution@conversion@vert-conversion-explicit-double-float,Fail
spec@glsl-4.00@execution@conversion@vert-conversion-explicit-dvec2-vec2,Fail
spec@glsl-4.00@execution@conversion@vert-conversion-explicit-dvec3-vec3,Fail
spec@glsl-4.00@execution@conversion@vert-conversion-explicit-dvec4-vec4,Fail
spec@glsl-es-3.00@execution@built-in-functions@fs-packhalf2x16,Fail
spec@glsl-es-3.00@execution@built-in-functions@vs-packhalf2x16,Fail
spec@khr_texture_compression_astc@miptree-gl srgb-fp,Fail
spec@khr_texture_compression_astc@miptree-gl srgb-fp@sRGB decode full precision,Fail
spec@khr_texture_compression_astc@miptree-gles srgb-fp,Fail
spec@khr_texture_compression_astc@miptree-gles srgb-fp@sRGB decode full precision,Fail
spec@khr_texture_compression_astc@sliced-3d-miptree-gl srgb-fp,Fail
spec@khr_texture_compression_astc@sliced-3d-miptree-gl srgb-fp@sRGB decode full precision,Fail
spec@khr_texture_compression_astc@sliced-3d-miptree-gles srgb-fp,Fail
spec@khr_texture_compression_astc@sliced-3d-miptree-gles srgb-fp@sRGB decode full precision,Fail
spec@oes_egl_image_external_essl3@oes_egl_image_external_essl3,Fail
spec@oes_egl_image_external_essl3@oes_egl_image_external_essl3@oes_egl_image_external_essl3_imageLoad,Fail
spec@oes_egl_image_external_essl3@oes_egl_image_external_essl3@oes_egl_image_external_essl3_imageStore,Fail
spec@oes_shader_io_blocks@compiler@layout-location-aliasing.vert,Fail
wgl@wgl-multi-context-single-window,Fail
wgl@wgl-multi-window-single-context,Fail
wgl@wgl-sanity,Fail
